[
  {
    "title": "Free Webinar",
    "description": "Participate in a free introduction webinar to discover your future study possibilities.",
    "image": {
      "url": "images/features/noun_branding_1885335.svg",
      "width": 80,
      "height": 80
    },
    "button": {
      "url": "/webinar",
      "title": "Register now"
    }
  },
  {
    "title": "Educational Consultants",
    "description": "All members of our team are experienced educational consultants with a passion for Belgium.",
    "image": {
      "url": "images/features/noun_The Process_1885341.svg",
      "width": 80,
      "height": 80
    }
  },
  {
    "title": "Local assistance",
    "description": "We can help you settle down smoothly after arrival at your university.",
    "image": {
      "url": "images/features/noun_3d modeling_1885342.svg",
      "width": 80,
      "height": 80
    }
  }
]
